…
Use hubData to connect to a hub on S3 and retrieve all model-output files into a local dataframe. (note: depending on the size of the hub, this operation will take a few minutes):

```r
library(dplyr)
library(hubData)

bucket_name <- "bdbv-modeling-hub"
hub_bucket <- s3_bucket(bucket_name)
hub_con <- hubData::connect_hub(hub_bucket, file_format = "parquet", skip_checks = TRUE)
model_output <- hub_con %>%
  hubData::collect_hub()

model_output
# A tibble: 135 × 7
#    model_id        reference_date location target           output_type output_type_id value
#  * <chr>           <date>         <chr>    <chr>            <chr>                <dbl> <dbl>
#  1 MOBS-GLEAM_BDBV 2026-05-24     CD       cumulative cases quantile             0.025  149.
#  2 MOBS-GLEAM_BDBV 2026-05-24     CD       cumulative cases quantile             0.1    286.
#  3 MOBS-GLEAM_BDBV 2026-05-24     CD       cumulative cases quantile             0.25   519 
#  4 MOBS-GLEAM_BDBV 2026-05-24     CD       cumulative cases quantile             0.5    882.
#  5 MOBS-GLEAM_BDBV 2026-05-24     CD       cumulative cases quantile             0.75  1374.
#  6 MOBS-GLEAM_BDBV 2026-05-24     CD       cumulative cases quantile             0.9   1987.
#  7 MOBS-GLEAM_BDBV 2026-05-24     CD       cumulative cases quantile             0.975 2858.
#  8 MOBS-GLEAM_BDBV 2026-05-24     CD       cumulative cases mean                NA     1040.
#  9 MOBS-GLEAM_BDBV 2026-06-13     CD       cumulative cases quantile             0.025  291.
# 10 MOBS-GLEAM_BDBV 2026-06-13     CD       cumulative cases quantile             0.1    560.
# ℹ 125 more rows
# ℹ Use `print(n = ...)` to see more rows
```
…
